%YAML 1.1
%TAG !u! tag:unity3d.com,2011:
--- !u!1 &703317985371372034
GameObject:
  m_ObjectHideFlags: 0
  m_CorrespondingSourceObject: {fileID: 0}
  m_PrefabInstance: {fileID: 0}
  m_PrefabAsset: {fileID: 0}
  serializedVersion: 6
  m_Component:
  - component: {fileID: 9018690938063510655}
  - component: {fileID: 1940653667469318991}
  m_Layer: 31
  m_Name: Ground Tiles
  m_TagString: Untagged
  m_Icon: {fileID: 0}
  m_NavMeshLayer: 0
  m_StaticEditorFlags: 0
  m_IsActive: 1
--- !u!4 &9018690938063510655
Transform:
  m_ObjectHideFlags: 0
  m_CorrespondingSourceObject: {fileID: 0}
  m_PrefabInstance: {fileID: 0}
  m_PrefabAsset: {fileID: 0}
  m_GameObject: {fileID: 703317985371372034}
  m_LocalRotation: {x: 0, y: 0, z: 0, w: 1}
  m_LocalPosition: {x: 0, y: 0, z: 0}
  m_LocalScale: {x: 1, y: 1, z: 1}
  m_Children:
  - {fileID: 2917825903310298704}
  m_Father: {fileID: 0}
  m_RootOrder: 0
  m_LocalEulerAnglesHint: {x: 0, y: 0, z: 0}
--- !u!156049354 &1940653667469318991
Grid:
  m_ObjectHideFlags: 0
  m_CorrespondingSourceObject: {fileID: 0}
  m_PrefabInstance: {fileID: 0}
  m_PrefabAsset: {fileID: 0}
  m_GameObject: {fileID: 703317985371372034}
  m_Enabled: 1
  m_CellSize: {x: 1, y: 1, z: 0}
  m_CellGap: {x: 0, y: 0, z: 0}
  m_CellLayout: 0
  m_CellSwizzle: 0
--- !u!1 &4224144514829197958
GameObject:
  m_ObjectHideFlags: 0
  m_CorrespondingSourceObject: {fileID: 0}
  m_PrefabInstance: {fileID: 0}
  m_PrefabAsset: {fileID: 0}
  serializedVersion: 6
  m_Component:
  - component: {fileID: 2917825903310298704}
  - component: {fileID: 6920608093444154865}
  - component: {fileID: 455130214726230208}
  m_Layer: 0
  m_Name: Layer1
  m_TagString: Untagged
  m_Icon: {fileID: 0}
  m_NavMeshLayer: 0
  m_StaticEditorFlags: 0
  m_IsActive: 1
--- !u!4 &2917825903310298704
Transform:
  m_ObjectHideFlags: 0
  m_CorrespondingSourceObject: {fileID: 0}
  m_PrefabInstance: {fileID: 0}
  m_PrefabAsset: {fileID: 0}
  m_GameObject: {fileID: 4224144514829197958}
  m_LocalRotation: {x: -0, y: -0, z: -0, w: 1}
  m_LocalPosition: {x: 0, y: 0, z: 0}
  m_LocalScale: {x: 1, y: 1, z: 1}
  m_Children: []
  m_Father: {fileID: 9018690938063510655}
  m_RootOrder: 0
  m_LocalEulerAnglesHint: {x: 0, y: 0, z: 0}
--- !u!1839735485 &6920608093444154865
Tilemap:
  m_ObjectHideFlags: 0
  m_CorrespondingSourceObject: {fileID: 0}
  m_PrefabInstance: {fileID: 0}
  m_PrefabAsset: {fileID: 0}
  m_GameObject: {fileID: 4224144514829197958}
  m_Enabled: 1
  m_Tiles:
  - first: {x: -1, y: -3, z: 0}
    second:
      serializedVersion: 2
      m_TileIndex: 31
      m_TileSpriteIndex: 31
      m_TileMatrixIndex: 0
      m_TileColorIndex: 0
      m_TileObjectToInstantiateIndex: 65535
      m_AllTileFlags: 1073741825
  - first: {x: 0, y: -3, z: 0}
    second:
      serializedVersion: 2
      m_TileIndex: 32
      m_TileSpriteIndex: 32
      m_TileMatrixIndex: 0
      m_TileColorIndex: 0
      m_TileObjectToInstantiateIndex: 65535
      m_AllTileFlags: 1073741825
  - first: {x: 1, y: -3, z: 0}
    second:
      serializedVersion: 2
      m_TileIndex: 33
      m_TileSpriteIndex: 33
      m_TileMatrixIndex: 0
      m_TileColorIndex: 0
      m_TileObjectToInstantiateIndex: 65535
      m_AllTileFlags: 1073741825
  - first: {x: 2, y: -3, z: 0}
    second:
      serializedVersion: 2
      m_TileIndex: 34
      m_TileSpriteIndex: 34
      m_TileMatrixIndex: 0
      m_TileColorIndex: 0
      m_TileObjectToInstantiateIndex: 65535
      m_AllTileFlags: 1073741825
  - first: {x: -1, y: -2, z: 0}
    second:
      serializedVersion: 2
      m_TileIndex: 29
      m_TileSpriteIndex: 29
      m_TileMatrixIndex: 0
      m_TileColorIndex: 0
      m_TileObjectToInstantiateIndex: 65535
      m_AllTileFlags: 1073741825
  - first: {x: 2, y: -2, z: 0}
    second:
      serializedVersion: 2
      m_TileIndex: 30
      m_TileSpriteIndex: 30
      m_TileMatrixIndex: 0
      m_TileColorIndex: 0
      m_TileObjectToInstantiateIndex: 65535
      m_AllTileFlags: 1073741825
  - first: {x: -1, y: -1, z: 0}
    second:
      serializedVersion: 2
      m_TileIndex: 27
      m_TileSpriteIndex: 27
      m_TileMatrixIndex: 0
      m_TileColorIndex: 0
      m_TileObjectToInstantiateIndex: 65535
      m_AllTileFlags: 1073741825
  - first: {x: 2, y: -1, z: 0}
    second:
      serializedVersion: 2
      m_TileIndex: 28
      m_TileSpriteIndex: 28
      m_TileMatrixIndex: 0
      m_TileColorIndex: 0
      m_TileObjectToInstantiateIndex: 65535
      m_AllTileFlags: 1073741825
  - first: {x: -1, y: 0, z: 0}
    second:
      serializedVersion: 2
      m_TileIndex: 23
      m_TileSpriteIndex: 23
      m_TileMatrixIndex: 0
      m_TileColorIndex: 0
      m_TileObjectToInstantiateIndex: 65535
      m_AllTileFlags: 1073741825
  - first: {x: 0, y: 0, z: 0}
    second:
      serializedVersion: 2
      m_TileIndex: 24
      m_TileSpriteIndex: 24
      m_TileMatrixIndex: 0
      m_TileColorIndex: 0
      m_TileObjectToInstantiateIndex: 65535
      m_AllTileFlags: 1073741825
  - first: {x: 1, y: 0, z: 0}
    second:
      serializedVersion: 2
      m_TileIndex: 25
      m_TileSpriteIndex: 25
      m_TileMatrixIndex: 0
      m_TileColorIndex: 0
      m_TileObjectToInstantiateIndex: 65535
      m_AllTileFlags: 1073741825
  - first: {x: 2, y: 0, z: 0}
    second:
      serializedVersion: 2
      m_TileIndex: 26
      m_TileSpriteIndex: 26
      m_TileMatrixIndex: 0
      m_TileColorIndex: 0
      m_TileObjectToInstantiateIndex: 65535
      m_AllTileFlags: 1073741825
  - first: {x: -1, y: 1, z: 0}
    second:
      serializedVersion: 2
      m_TileIndex: 19
      m_TileSpriteIndex: 19
      m_TileMatrixIndex: 0
      m_TileColorIndex: 0
      m_TileObjectToInstantiateIndex: 65535
      m_AllTileFlags: 1073741825
  - first: {x: 0, y: 1, z: 0}
    second:
      serializedVersion: 2
      m_TileIndex: 20
      m_TileSpriteIndex: 20
      m_TileMatrixIndex: 0
      m_TileColorIndex: 0
      m_TileObjectToInstantiateIndex: 65535
      m_AllTileFlags: 1073741825
  - first: {x: 1, y: 1, z: 0}
    second:
      serializedVersion: 2
      m_TileIndex: 21
      m_TileSpriteIndex: 21
      m_TileMatrixIndex: 0
      m_TileColorIndex: 0
      m_TileObjectToInstantiateIndex: 65535
      m_AllTileFlags: 1073741825
  - first: {x: 2, y: 1, z: 0}
    second:
      serializedVersion: 2
      m_TileIndex: 22
      m_TileSpriteIndex: 22
      m_TileMatrixIndex: 0
      m_TileColorIndex: 0
      m_TileObjectToInstantiateIndex: 65535
      m_AllTileFlags: 1073741825
  - first: {x: -1, y: 2, z: 0}
    second:
      serializedVersion: 2
      m_TileIndex: 12
      m_TileSpriteIndex: 12
      m_TileMatrixIndex: 0
      m_TileColorIndex: 0
      m_TileObjectToInstantiateIndex: 65535
      m_AllTileFlags: 1073741825
  - first: {x: 2, y: 2, z: 0}
    second:
      serializedVersion: 2
      m_TileIndex: 13
      m_TileSpriteIndex: 13
      m_TileMatrixIndex: 0
      m_TileColorIndex: 0
      m_TileObjectToInstantiateIndex: 65535
      m_AllTileFlags: 1073741825
  - first: {x: 3, y: 2, z: 0}
    second:
      serializedVersion: 2
      m_TileIndex: 14
      m_TileSpriteIndex: 14
      m_TileMatrixIndex: 0
      m_TileColorIndex: 0
      m_TileObjectToInstantiateIndex: 65535
      m_AllTileFlags: 1073741825
  - first: {x: 4, y: 2, z: 0}
    second:
      serializedVersion: 2
      m_TileIndex: 15
      m_TileSpriteIndex: 15
      m_TileMatrixIndex: 0
      m_TileColorIndex: 0
      m_TileObjectToInstantiateIndex: 65535
      m_AllTileFlags: 1073741825
  - first: {x: 5, y: 2, z: 0}
    second:
      serializedVersion: 2
      m_TileIndex: 16
      m_TileSpriteIndex: 16
      m_TileMatrixIndex: 0
      m_TileColorIndex: 0
      m_TileObjectToInstantiateIndex: 65535
      m_AllTileFlags: 1073741825
  - first: {x: 7, y: 2, z: 0}
    second:
      serializedVersion: 2
      m_TileIndex: 17
      m_TileSpriteIndex: 17
      m_TileMatrixIndex: 0
      m_TileColorIndex: 0
      m_TileObjectToInstantiateIndex: 65535
      m_AllTileFlags: 1073741825
  - first: {x: 8, y: 2, z: 0}
    second:
      serializedVersion: 2
      m_TileIndex: 18
      m_TileSpriteIndex: 18
      m_TileMatrixIndex: 0
      m_TileColorIndex: 0
      m_TileObjectToInstantiateIndex: 65535
      m_AllTileFlags: 1073741825
  - first: {x: -1, y: 3, z: 0}
    second:
      serializedVersion: 2
      m_TileIndex: 8
      m_TileSpriteIndex: 8
      m_TileMatrixIndex: 0
      m_TileColorIndex: 0
      m_TileObjectToInstantiateIndex: 65535
      m_AllTileFlags: 1073741825
  - first: {x: 2, y: 3, z: 0}
    second:
      serializedVersion: 2
      m_TileIndex: 9
      m_TileSpriteIndex: 9
      m_TileMatrixIndex: 0
      m_TileColorIndex: 0
      m_TileObjectToInstantiateIndex: 65535
      m_AllTileFlags: 1073741825
  - first: {x: 3, y: 3, z: 0}
    second:
      serializedVersion: 2
      m_TileIndex: 10
      m_TileSpriteIndex: 10
      m_TileMatrixIndex: 0
      m_TileColorIndex: 0
      m_TileObjectToInstantiateIndex: 65535
      m_AllTileFlags: 1073741825
  - first: {x: 4, y: 3, z: 0}
    second:
      serializedVersion: 2
      m_TileIndex: 11
      m_TileSpriteIndex: 11
      m_TileMatrixIndex: 0
      m_TileColorIndex: 0
      m_TileObjectToInstantiateIndex: 65535
      m_AllTileFlags: 1073741825
  - first: {x: -1, y: 4, z: 0}
    second:
      serializedVersion: 2
      m_TileIndex: 0
      m_TileSpriteIndex: 0
      m_TileMatrixIndex: 0
      m_TileColorIndex: 0
      m_TileObjectToInstantiateIndex: 65535
      m_AllTileFlags: 1073741825
  - first: {x: 0, y: 4, z: 0}
    second:
      serializedVersion: 2
      m_TileIndex: 1
      m_TileSpriteIndex: 1
      m_TileMatrixIndex: 0
      m_TileColorIndex: 0
      m_TileObjectToInstantiateIndex: 65535
      m_AllTileFlags: 1073741825
  - first: {x: 1, y: 4, z: 0}
    second:
      serializedVersion: 2
      m_TileIndex: 2
      m_TileSpriteIndex: 2
      m_TileMatrixIndex: 0
      m_TileColorIndex: 0
      m_TileObjectToInstantiateIndex: 65535
      m_AllTileFlags: 1073741825
  - first: {x: 2, y: 4, z: 0}
    second:
      serializedVersion: 2
      m_TileIndex: 3
      m_TileSpriteIndex: 3
      m_TileMatrixIndex: 0
      m_TileColorIndex: 0
      m_TileObjectToInstantiateIndex: 65535
      m_AllTileFlags: 1073741825
  - first: {x: 3, y: 4, z: 0}
    second:
      serializedVersion: 2
      m_TileIndex: 4
      m_TileSpriteIndex: 4
      m_TileMatrixIndex: 0
      m_TileColorIndex: 0
      m_TileObjectToInstantiateIndex: 65535
      m_AllTileFlags: 1073741825
  - first: {x: 4, y: 4, z: 0}
    second:
      serializedVersion: 2
      m_TileIndex: 5
      m_TileSpriteIndex: 5
      m_TileMatrixIndex: 0
      m_TileColorIndex: 0
      m_TileObjectToInstantiateIndex: 65535
      m_AllTileFlags: 1073741825
  - first: {x: 7, y: 4, z: 0}
    second:
      serializedVersion: 2
      m_TileIndex: 6
      m_TileSpriteIndex: 6
      m_TileMatrixIndex: 0
      m_TileColorIndex: 0
      m_TileObjectToInstantiateIndex: 65535
      m_AllTileFlags: 1073741825
  - first: {x: 8, y: 4, z: 0}
    second:
      serializedVersion: 2
      m_TileIndex: 7
      m_TileSpriteIndex: 7
      m_TileMatrixIndex: 0
      m_TileColorIndex: 0
      m_TileObjectToInstantiateIndex: 65535
      m_AllTileFlags: 1073741825
  m_AnimatedTiles: {}
  m_TileAssetArray:
  - m_RefCount: 1
    m_Data: {fileID: 11400000, guid: ab5f2bf51990d2844808f078ed17fa79, type: 2}
  - m_RefCount: 1
    m_Data: {fileID: 11400000, guid: 5ead741ff66fb7146b9535318af5862f, type: 2}
  - m_RefCount: 1
    m_Data: {fileID: 11400000, guid: f8d58295d59b8d24da9cbb57189153d5, type: 2}
  - m_RefCount: 1
    m_Data: {fileID: 11400000, guid: 8a073d763f17f81449655ae0297102c9, type: 2}
  - m_RefCount: 1
    m_Data: {fileID: 11400000, guid: 64f13fdd6f51e9e46b8b29fee9546b71, type: 2}
  - m_RefCount: 1
    m_Data: {fileID: 11400000, guid: 70a2e6c7fc9502b4da815297e7df4b24, type: 2}
  - m_RefCount: 1
    m_Data: {fileID: 11400000, guid: 27824fb8ea048a941af898f505b0d621, type: 2}
  - m_RefCount: 1
    m_Data: {fileID: 11400000, guid: 91734ec169e4bc647856ab664d40a8ce, type: 2}
  - m_RefCount: 1
    m_Data: {fileID: 11400000, guid: 2403729ce32327f4a85e4841c83829ab, type: 2}
  - m_RefCount: 1
    m_Data: {fileID: 11400000, guid: 25dcf7c5c04d2534388421c52b48c648, type: 2}
  - m_RefCount: 1
    m_Data: {fileID: 11400000, guid: 3bc11ad4bb18cd946832a65c5bc8099d, type: 2}
  - m_RefCount: 1
    m_Data: {fileID: 11400000, guid: 0939b563d9f6a114abceb5ca68e5305f, type: 2}
  - m_RefCount: 1
    m_Data: {fileID: 11400000, guid: 8449d8036a5775d499e7090ae10c477c, type: 2}
  - m_RefCount: 1
    m_Data: {fileID: 11400000, guid: 730360759628d9449a1b681904dfa14f, type: 2}
  - m_RefCount: 1
    m_Data: {fileID: 11400000, guid: 5f3b27041487b88479213d8d0e042d66, type: 2}
  - m_RefCount: 1
    m_Data: {fileID: 11400000, guid: a9f9ee6c9c00f5744bcaabb9ed0da6cc, type: 2}
  - m_RefCount: 1
    m_Data: {fileID: 11400000, guid: ffe088788c6a56b42949c5f6d6ddd3ba, type: 2}
  - m_RefCount: 1
    m_Data: {fileID: 11400000, guid: aefca9c49130e294181ba609eb6dbf96, type: 2}
  - m_RefCount: 1
    m_Data: {fileID: 11400000, guid: 52c43920e65a6534abe46f0d34514f5f, type: 2}
  - m_RefCount: 1
    m_Data: {fileID: 11400000, guid: 29b9b1714d966cc4d917d84d374d05d3, type: 2}
  - m_RefCount: 1
    m_Data: {fileID: 11400000, guid: 47d599b4514761747a61c92e5946d2e8, type: 2}
  - m_RefCount: 1
    m_Data: {fileID: 11400000, guid: 0d0878a01c84717418613f70c7556dbd, type: 2}
  - m_RefCount: 1
    m_Data: {fileID: 11400000, guid: 060825723f7bec340aa0e7c81a1aa7f6, type: 2}
  - m_RefCount: 1
    m_Data: {fileID: 11400000, guid: 07840dda3af900245985d512c4230060, type: 2}
  - m_RefCount: 1
    m_Data: {fileID: 11400000, guid: 2090a609adf558948a364685b3ca8403, type: 2}
  - m_RefCount: 1
    m_Data: {fileID: 11400000, guid: 25d6a2ff6f934b44c827d79ace131106, type: 2}
  - m_RefCount: 1
    m_Data: {fileID: 11400000, guid: d6ef9f72e99a0894e9923aa72f764436, type: 2}
  - m_RefCount: 1
    m_Data: {fileID: 11400000, guid: 7653b8c244d722646a5442e5b129a139, type: 2}
  - m_RefCount: 1
    m_Data: {fileID: 11400000, guid: a63aaebc28115e9449c2d5926233b681, type: 2}
  - m_RefCount: 1
    m_Data: {fileID: 11400000, guid: 96b0e6bee74d8c34aa2c7fe74f87b95f, type: 2}
  - m_RefCount: 1
    m_Data: {fileID: 11400000, guid: 684af98b8c92d5a4cb0c6c7f26154fd0, type: 2}
  - m_RefCount: 1
    m_Data: {fileID: 11400000, guid: 207fe9fb954c1a2459d3c60b42806ff4, type: 2}
  - m_RefCount: 1
    m_Data: {fileID: 11400000, guid: 7acc5f8bafd0cb141a77d534e4546bbc, type: 2}
  - m_RefCount: 1
    m_Data: {fileID: 11400000, guid: 99628aebc78b6f64ab0280e9ec323a6e, type: 2}
  - m_RefCount: 1
    m_Data: {fileID: 11400000, guid: f650dc3126464b04da5d9bee0b06af0d, type: 2}
  m_TileSpriteArray:
  - m_RefCount: 1
    m_Data: {fileID: -8817581439511588646, guid: 18e85c61b37fccc489f99d8b0ae4f687, type: 3}
  - m_RefCount: 1
    m_Data: {fileID: 3470226196251021348, guid: 18e85c61b37fccc489f99d8b0ae4f687, type: 3}
  - m_RefCount: 1
    m_Data: {fileID: 6457595792069789485, guid: 18e85c61b37fccc489f99d8b0ae4f687, type: 3}
  - m_RefCount: 1
    m_Data: {fileID: -7568512822904233386, guid: 18e85c61b37fccc489f99d8b0ae4f687, type: 3}
  - m_RefCount: 1
    m_Data: {fileID: 8054352605756397108, guid: 18e85c61b37fccc489f99d8b0ae4f687, type: 3}
  - m_RefCount: 1
    m_Data: {fileID: 2342544026829020133, guid: 18e85c61b37fccc489f99d8b0ae4f687, type: 3}
  - m_RefCount: 1
    m_Data: {fileID: 2490282768463204785, guid: 18e85c61b37fccc489f99d8b0ae4f687, type: 3}
  - m_RefCount: 1
    m_Data: {fileID: 657526283906658232, guid: 18e85c61b37fccc489f99d8b0ae4f687, type: 3}
  - m_RefCount: 1
    m_Data: {fileID: 6328093213146529821, guid: 18e85c61b37fccc489f99d8b0ae4f687, type: 3}
  - m_RefCount: 1
    m_Data: {fileID: -4923564075341623418, guid: 18e85c61b37fccc489f99d8b0ae4f687, type: 3}
  - m_RefCount: 1
    m_Data: {fileID: -614201769604158382, guid: 18e85c61b37fccc489f99d8b0ae4f687, type: 3}
  - m_RefCount: 1
    m_Data: {fileID: 8427416608795466603, guid: 18e85c61b37fccc489f99d8b0ae4f687, type: 3}
  - m_RefCount: 1
    m_Data: {fileID: 6553728459227863730, guid: 18e85c61b37fccc489f99d8b0ae4f687, type: 3}
  - m_RefCount: 1
    m_Data: {fileID: -4795541052902701625, guid: 18e85c61b37fccc489f99d8b0ae4f687, type: 3}
  - m_RefCount: 1
    m_Data: {fileID: -3052317146429957219, guid: 18e85c61b37fccc489f99d8b0ae4f687, type: 3}
  - m_RefCount: 1
    m_Data: {fileID: -2296840498216976974, guid: 18e85c61b37fccc489f99d8b0ae4f687, type: 3}
  - m_RefCount: 1
    m_Data: {fileID: 866600133293711975, guid: 18e85c61b37fccc489f99d8b0ae4f687, type: 3}
  - m_RefCount: 1
    m_Data: {fileID: -2794647836015850606, guid: 18e85c61b37fccc489f99d8b0ae4f687, type: 3}
  - m_RefCount: 1
    m_Data: {fileID: -4243545978284041712, guid: 18e85c61b37fccc489f99d8b0ae4f687, type: 3}
  - m_RefCount: 1
    m_Data: {fileID: 4690836108213273297, guid: 18e85c61b37fccc489f99d8b0ae4f687, type: 3}
  - m_RefCount: 1
    m_Data: {fileID: 852816147200186048, guid: 18e85c61b37fccc489f99d8b0ae4f687, type: 3}
  - m_RefCount: 1
    m_Data: {fileID: -3659700022757018084, guid: 18e85c61b37fccc489f99d8b0ae4f687, type: 3}
  - m_RefCount: 1
    m_Data: {fileID: -8915156395252137436, guid: 18e85c61b37fccc489f99d8b0ae4f687, type: 3}
  - m_RefCount: 1
    m_Data: {fileID: -6874886406195422172, guid: 18e85c61b37fccc489f99d8b0ae4f687, type: 3}
  - m_RefCount: 1
    m_Data: {fileID: 3365079846683450843, guid: 18e85c61b37fccc489f99d8b0ae4f687, type: 3}
  - m_RefCount: 1
    m_Data: {fileID: 1727891899364037005, guid: 18e85c61b37fccc489f99d8b0ae4f687, type: 3}
  - m_RefCount: 1
    m_Data: {fileID: -4957738508580849418, guid: 18e85c61b37fccc489f99d8b0ae4f687, type: 3}
  - m_RefCount: 1
    m_Data: {fileID: -3941319879996147975, guid: 18e85c61b37fccc489f99d8b0ae4f687, type: 3}
  - m_RefCount: 1
    m_Data: {fileID: 1349418045667228103, guid: 18e85c61b37fccc489f99d8b0ae4f687, type: 3}
  - m_RefCount: 1
    m_Data: {fileID: -8941612503232028893, guid: 18e85c61b37fccc489f99d8b0ae4f687, type: 3}
  - m_RefCount: 1
    m_Data: {fileID: -5905174619835536800, guid: 18e85c61b37fccc489f99d8b0ae4f687, type: 3}
  - m_RefCount: 1
    m_Data: {fileID: 2285738693504833685, guid: 18e85c61b37fccc489f99d8b0ae4f687, type: 3}
  - m_RefCount: 1
    m_Data: {fileID: 1789882794986966850, guid: 18e85c61b37fccc489f99d8b0ae4f687, type: 3}
  - m_RefCount: 1
    m_Data: {fileID: 8335707236958196739, guid: 18e85c61b37fccc489f99d8b0ae4f687, type: 3}
  - m_RefCount: 1
    m_Data: {fileID: 3644761734383553587, guid: 18e85c61b37fccc489f99d8b0ae4f687, type: 3}
  m_TileMatrixArray:
  - m_RefCount: 35
    m_Data:
      e00: 1
      e01: 0
      e02: 0
      e03: 0
      e10: 0
      e11: 1
      e12: 0
      e13: 0
      e20: 0
      e21: 0
      e22: 1
      e23: 0
      e30: 0
      e31: 0
      e32: 0
      e33: 1
  m_TileColorArray:
  - m_RefCount: 35
    m_Data: {r: 1, g: 1, b: 1, a: 1}
  m_TileObjectToInstantiateArray: []
  m_AnimationFrameRate: 1
  m_Color: {r: 1, g: 1, b: 1, a: 1}
  m_Origin: {x: -1, y: -3, z: 0}
  m_Size: {x: 10, y: 8, z: 1}
  m_TileAnchor: {x: 0.5, y: 0.5, z: 0}
  m_TileOrientation: 0
  m_TileOrientationMatrix:
    e00: 1
    e01: 0
    e02: 0
    e03: 0
    e10: 0
    e11: 1
    e12: 0
    e13: 0
    e20: 0
    e21: 0
    e22: 1
    e23: 0
    e30: 0
    e31: 0
    e32: 0
    e33: 1
--- !u!483693784 &455130214726230208
TilemapRenderer:
  m_ObjectHideFlags: 0
  m_CorrespondingSourceObject: {fileID: 0}
  m_PrefabInstance: {fileID: 0}
  m_PrefabAsset: {fileID: 0}
  m_GameObject: {fileID: 4224144514829197958}
  m_Enabled: 1
  m_CastShadows: 0
  m_ReceiveShadows: 0
  m_DynamicOccludee: 1
  m_MotionVectors: 1
  m_LightProbeUsage: 0
  m_ReflectionProbeUsage: 0
  m_RayTracingMode: 0
  m_RayTraceProcedural: 0
  m_RenderingLayerMask: 1
  m_RendererPriority: 0
  m_Materials:
  - {fileID: 10754, guid: 0000000000000000f000000000000000, type: 0}
  m_StaticBatchInfo:
    firstSubMesh: 0
    subMeshCount: 0
  m_StaticBatchRoot: {fileID: 0}
  m_ProbeAnchor: {fileID: 0}
  m_LightProbeVolumeOverride: {fileID: 0}
  m_ScaleInLightmap: 1
  m_ReceiveGI: 1
  m_PreserveUVs: 0
  m_IgnoreNormalsForChartDetection: 0
  m_ImportantGI: 0
  m_StitchLightmapSeams: 1
  m_SelectedEditorRenderState: 0
  m_MinimumChartSize: 4
  m_AutoUVMaxDistance: 0.5
  m_AutoUVMaxAngle: 89
  m_LightmapParameters: {fileID: 0}
  m_SortingLayerID: 0
  m_SortingLayer: 0
  m_SortingOrder: 0
  m_ChunkSize: {x: 32, y: 32, z: 32}
  m_ChunkCullingBounds: {x: 0, y: 0, z: 0}
  m_MaxChunkCount: 16
  m_MaxFrameAge: 16
  m_SortOrder: 0
  m_Mode: 0
  m_DetectChunkCullingBounds: 0
  m_MaskInteraction: 0
--- !u!114 &2558582201452293881
MonoBehaviour:
  m_ObjectHideFlags: 0
  m_CorrespondingSourceObject: {fileID: 0}
  m_PrefabInstance: {fileID: 0}
  m_PrefabAsset: {fileID: 0}
  m_GameObject: {fileID: 0}
  m_Enabled: 1
  m_EditorHideFlags: 0
  m_Script: {fileID: 12395, guid: 0000000000000000e000000000000000, type: 0}
  m_Name: Palette Settings
  m_EditorClassIdentifier: 
  cellSizing: 0
